.Xil/Vivado-8868-scer/hw_ila_data_1/zip_work/waveform.vcd
$date
        2025-Jul-27 10:52:23
$end
$version
        Vivado v2020.2 (64-bit)
$end
$timescale
        1ps
$end
$scope module dut $end
$var reg 8 " D_IBUF [7:0] $end
$var reg 8 * A_OBUF [7:0] $end
$var reg 9 2 amp_d [8:0] $end
$var reg 8 ; amp_d_signed [7:0] $end
$var reg 16 C mult_full__0 [15:0] $end
$var reg 9 S user_probe_0 [8:0] $end
$var reg 8 \ amp_d_signed_avg [7:0] $end
$var reg 1 d _TRIGGER $end
$var reg 1 e _WINDOW $end
$var reg 1 f _GAP $end
$upscope $end
$enddefinitions $end
#0
$dumpvars
b1101000 "
b10000000 *
b11011 2
b11011 ;
b1111001110001110 C
b110001110 S
b11011 \
0d
1e
0f
$end
#7
b1111001101011000 C
b101011000 S
#27
b1111001100100010 C
b100100010 S
#28
b1101010 "
#47
b1111001100000111 C
b100000111 S
#67
b1111001011101100 C
b111101100 S
#87
b1111001011010001 C
b111010001 S
#107
b1111001010110110 C
b110110110 S
#128
b1101100 "
#167
b1111001011010001 C
b111010001 S
#187
b1111001011101100 C
b111101100 S
#207
b1111001100000111 C
b100000111 S
#227
b1111001100100010 C
b100100010 S
#228
b1101101 "
#247
b1111001101011000 C
b101011000 S
#267
b1111001110001110 C
b110001110 S
#287
b1111001111000100 C
b111000100 S
#307
b1111010000010101 C
b100010101 S
#327
b1111010001100110 C
b101100110 S
#328
b1101110 "
#347
b1111010010110111 C
b110110111 S
#367
b1111010100001000 C
b100001000 S
#387
b1111010101110100 C
b101110100 S
#407
b1111010111100000 C
b111100000 S
#427
b1111011001001100 C
b101001100 S
#447
b1111011011101110 C
b111101110 S
#467
b1111011101110101 C
b101110101 S
#487
b1111011111111100 C
b111111100 S
#507
b1111100010000011 C
b110000011 S
#527
b1111100100001010 C
b100001010 S
#528
b1101111 "
#547
b1111100110010001 C
b110010001 S
#567
b1111101000110011 C
b100110011 S
#587
b1111101010111010 C
b110111010 S
#607
b1111101101011100 C
b101011100 S
#627
b1111101111111110 C
b111111110 S
#647
b1111110010100000 C
b110100000 S
#667
b1111110101000010 C
b101000010 S
#687
b1111110111100100 C
b111100100 S
#707
b1111111010000110 C
b110000110 S
#727
b1111111100101000 C
b100101000 S
#747
b1111111111001010 C
b111001010 S
#767
b10000111 C
b10000111 S
#787
b101111010 C
b1111010 S
#807
b1000011100 C
b11100 S
#827
b1010111110 C
b10111110 S
#828
b1101110 "
#847
b1101100000 C
b1100000 S
#867
b10000000010 C
b10 S
#887
b10010100100 C
b10100100 S
#907
b10101000110 C
b1000110 S
#927
b10111001101 C
b11001101 S
#928
b1101101 "
#947
b11001101111 C
b1101111 S
#967
b11011110110 C
b11110110 S
#987
b11101111101 C
b1111101 S
#1007
b100000000100 C
b100 S
#1027
b100010001011 C
b10001011 S
#1028
b1101100 "
#1047
b100100010010 C
b10010 S
#1067
b100101111110 C
b1111110 S
#1087
b100111101010 C
b11101010 S
#1107
b101001010110 C
b1010110 S
#1127
b101011111000 C
b11111000 S
#1128
b1101010 "
#1147
b101101001001 C
b1001001 S
#1167
b101110011010 C
b10011010 S
#1187
b101111101011 C
b11101011 S
#1207
b110000111100 C
b111100 S
#1227
b110001110010 C
b1110010 S
#1247
b110010101000 C
b10101000 S
#1267
b110011011110 C
b11011110 S
#1287
b110011111001 C
b11111001 S
#1307
b110100010100 C
b10100 S
#1327
b110100101111 C
b101111 S
#1347
b110101001010 C
b1001010 S
#1427
b110100101111 C
b101111 S
#1447
b110100010100 C
b10100 S
#1467
b110011011110 C
b11011110 S
#1487
b110010101000 C
b10101000 S
#1507
b110001110010 C
b1110010 S
#1527
b110000111100 C
b111100 S
#1547
b101111101011 C
b11101011 S
#1567
b101110011010 C
b10011010 S
#1587
b101101001001 C
b1001001 S
#1607
b101011111000 C
b11111000 S
#1627
b101010001100 C
b10001100 S
#1628
b1101101 "
#1647
b101000100000 C
b100000 S
#1667
b100110110100 C
b10110100 S
#1687
b100101001000 C
b1001000 S
#1707
b100011000001 C
b11000001 S
#1727
b100001010101 C
b1010101 S
#1728
b1101111 "
#1747
b11111001110 C
b11001110 S
#1767
b11101000111 C
b1000111 S
#1787
b11010100101 C
b10100101 S
#1807
b10111001101 C
b11001101 S
#1827
b10101000110 C
b1000110 S
#1828
b1110011 "
#1847
b10010100100 C
b10100100 S
#1867
b10000000010 C
b10 S
#1887
b1101100000 C
b1100000 S
#1907
b1010111110 C
b10111110 S
#1927
b1000011100 C
b11100 S
#1928
b1110111 "
#1947
b101111010 C
b1111010 S
#1967
b11011000 C
b11011000 S
#1987
b110110 C
b110110 S
#2007
b1111111101111001 C
b101111001 S
#2027
b1111111011010111 C
b111010111 S
#2028
b1111100 "
#2047
b1111111000110101 C
b100110101 S
#2067
b1111110110010011 C
b110010011 S
#2087
b1111110011110001 C
b111110001 S
#2107
b1111110001001111 C
b101001111 S
#2127
b1111101110101101 C
b110101101 S
#2128
b10000001 "
#2147
b1111101010111010 C
b110111010 S
#2167
b1111101000110011 C
b100110011 S
#2187
b1111100110010001 C
b110010001 S
#2207
b1111100100001010 C
b100001010 S
#2227
b1111100010000011 C
b110000011 S
#2228
b10000111 "
#2247
b1111011111111100 C
b111111100 S
#2267
b1111011101110101 C
b101110101 S
#2287
b1111011011101110 C
b111101110 S
#2307
b1111011010000010 C
b110000010 S
#2327
b1111011000010110 C
b100010110 S
#2328
b10001101 "
#2347
b1111010110101010 C
b110101010 S
#2367
b1111010100111110 C
b100111110 S
#2387
b1111010011010010 C
b111010010 S
#2407
b1111010010000001 C
b110000001 S
#2427
b1111010000110000 C
b100110000 S
#2428
b10010011 "
#2447
b1111001111011111 C
b111011111 S
#2467
b1111001110101001 C
b110101001 S
#2487
b1111001101011000 C
b101011000 S
#2507
b1111001100100010 C
b100100010 S
#2527
b1111001100000111 C
b100000111 S
#2528
b10011001 "
#2547
b1111001011101100 C
b111101100 S
#2567
b1111001011010001 C
b111010001 S
#2587
b1111001010110110 C
b110110110 S
#2628
b10011101 "
#2667
b1111001011010001 C
b111010001 S
#2687
b1111001011101100 C
b111101100 S
#2707
b1111001100000111 C
b100000111 S
#2727
b1111001100111101 C
b100111101 S
#2728
b10100000 "
#2747
b1111001101110011 C
b101110011 S
#2767
b1111001110101001 C
b110101001 S
#2787
b1111001111011111 C
b111011111 S
#2807
b1111010000110000 C
b100110000 S
#2827
b1111010010110111 C
b110110111 S
#2828
b10100010 "
#2847
b1111010100001000 C
b100001000 S
#2867
b1111010101110100 C
b101110100 S
#2887
b1111010111100000 C
b111100000 S
#2907
b1111011001001100 C
b101001100 S
#2927
b1111011010111000 C
b110111000 S
#2928
b10100100 "
#2947
b1111011100111111 C
b100111111 S
#2967
b1111011110101011 C
b110101011 S
#2987
b1111100000110010 C
b100110010 S
#3007
b1111100010111001 C
b110111001 S
#3027
b1111100101011011 C
b101011011 S
#3028
b10100101 "
#3047
b1111100111100010 C
b111100010 S
#3067
b1111101010000100 C
b110000100 S
#3087
b1111101100001011 C
b100001011 S
#3107
b1111101110101101 C
b110101101 S
#3127
b1111110001001111 C
b101001111 S
#3128
b10100100 "
#3147
b1111110011110001 C
b111110001 S
#3167
b1111110111100100 C
b111100100 S
#3187
b1111111010000110 C
b110000110 S
#3207
b1111111100101000 C
b100101000 S
#3227
b1111111111001010 C
b111001010 S
#3228
b10100010 "
#3247
b10000111 C
b10000111 S
#3267
b100101001 C
b101001 S
#3287
b111001011 C
b11001011 S
#3307
b1001101101 C
b1101101 S
#3327
b1100001111 C
b1111 S
#3328
b10011101 "
#3347
b1110110001 C
b10110001 S
#3367
b10001010011 C
b1010011 S
#3387
b10011110101 C
b11110101 S
#3407
b10101111100 C
b1111100 S
#3427
b11000011110 C
b11110 S
#3428
b10011000 "
#3447
b11010100101 C
b10100101 S
#3467
b11101000111 C
b1000111 S
#3487
b11111001110 C
b11001110 S
#3507
b100010001011 C
b10001011 S
#3527
b100100010010 C
b10010 S
#3528
b10010011 "
#3547
b100101111110 C
b1111110 S
#3567
b100111101010 C
b11101010 S
#3587
b101001010110 C
b1010110 S
#3607
b101011000010 C
b11000010 S
#3627
b101100101110 C
b101110 S
#3628
b10001110 "
#3647
b101101111111 C
b1111111 S
#3667
b101111010000 C
b11010000 S
#3687
b110000100001 C
b100001 S
#3707
b110001010111 C
b1010111 S
#3727
b110010001101 C
b10001101 S
#3728
b10001001 "
#3747
b110011000011 C
b11000011 S
#3767
b110011111001 C
b11111001 S
#3787
b110100010100 C
b10100 S
#3807
b110100101111 C
b101111 S
#3827
b110101001010 C
b1001010 S
#3828
b10000010 "
#3907
b110100101111 C
b101111 S
#3927
b110100010100 C
b10100 S
#3928
b1111100 "
#3947
b110011111001 C
b11111001 S
#3967
b110011000011 C
b11000011 S
#3987
b110010001101 C
b10001101 S
#4000
1d
#4007
b110001010111 C
b1010111 S
#4027
b110000100001 C
b100001 S
#4028
b1110110 "
#4047
b101111010000 C
b11010000 S
#4067
b101101111111 C
b1111111 S
#4087
b101100101110 C
b101110 S
#4107
b101011000010 C
b11000010 S
#4127
b101001010110 C
b1010110 S
#4128
b1110010 "
#4147
b100111101010 C
b11101010 S
#4167
b100101111110 C
b1111110 S
#4187
b100100010010 C
b10010 S
#4207
b100001010101 C
b1010101 S
#4227
b11111001110 C
b11001110 S
#4228
b1101110 "
#4247
b11101000111 C
b1000111 S
#4267
b11010100101 C
b10100101 S
#4287
b11000011110 C
b11110 S
#4307
b10101111100 C
b1111100 S
#4327
b10011110101 C
b11110101 S
#4328
b1101011 "
#4347
b10001010011 C
b1010011 S
#4367
b1110110001 C
b10110001 S
#4387
b1100001111 C
b1111 S
#4407
b1001101101 C
b1101101 S
#4427
b111001011 C
b11001011 S
#4428
b1101001 "
#4447
b100101001 C
b101001 S
#4467
b10000111 C
b10000111 S
#4487
b1111111111001010 C
b111001010 S
#4507
b1111111100101000 C
b100101000 S
#4527
b1111111010000110 C
b110000110 S
#4528
b1101000 "
#4547
b1111110110010011 C
b110010011 S
#4567
b1111110011110001 C
b111110001 S
#4587
b1111110001001111 C
b101001111 S
#4607
b1111101110101101 C
b110101101 S
#4627
b1111101100001011 C
b100001011 S
#4628
b1100111 "
#4647
b1111101010000100 C
b110000100 S
#4667
b1111100111100010 C
b111100010 S
#4687
b1111100101011011 C
b101011011 S
#4707
b1111100010111001 C
b110111001 S
#4727
b1111100000110010 C
b100110010 S
#4728
b1101000 "
#4747
b1111011110101011 C
b110101011 S
#4767
b1111011100111111 C
b100111111 S
#4787
b1111011010111000 C
b110111000 S
#4807
b1111011001001100 C
b101001100 S
#4827
b1111010111100000 C
b111100000 S
#4847
b1111010101110100 C
b101110100 S
#4867
b1111010100001000 C
b100001000 S
#4887
b1111010010000001 C
b110000001 S
#4907
b1111010000110000 C
b100110000 S
#4927
b1111001111011111 C
b111011111 S
#4928
b1101001 "
#4947
b1111001110101001 C
b110101001 S
#4967
b1111001101110011 C
b101110011 S
#4987
b1111001100111101 C
b100111101 S
#5007
b1111001100000111 C
b100000111 S
#5027
b1111001011101100 C
b111101100 S
#5028
b1101010 "
#5047
b1111001011010001 C
b111010001 S
#5067
b1111001010110110 C
b110110110 S
#5128
b1101100 "
#5147
b1111001011010001 C
b111010001 S
#5167
b1111001011101100 C
b111101100 S
#5187
b1111001100000111 C
b100000111 S
#5207
b1111001100100010 C
b100100010 S
#5227
b1111001101110011 C
b101110011 S
#5228
b1101110 "
#5247
b1111001110101001 C
b110101001 S
#5267
b1111001111011111 C
b111011111 S
#5287
b1111010000110000 C
b100110000 S
#5307
b1111010010000001 C
b110000001 S
#5327
b1111010011010010 C
b111010010 S
#5328
b1101111 "
#5347
b1111010100111110 C
b100111110 S
#5367
b1111010110101010 C
b110101010 S
#5387
b1111011000010110 C
b100010110 S
#5407
b1111011010000010 C
b110000010 S
#5427
b1111011011101110 C
b111101110 S
#5447
b1111011101110101 C
b101110101 S
#5467
b1111011111111100 C
b111111100 S
#5487
b1111100010000011 C
b110000011 S
#5507
b1111100100001010 C
b100001010 S
#5527
b1111100110010001 C
b110010001 S
#5547
b1111101000110011 C
b100110011 S
#5567
b1111101100001011 C
b100001011 S
#5587
b1111101110101101 C
b110101101 S
#5607
b1111110001001111 C
b101001111 S
#5627
b1111110011110001 C
b111110001 S
#5628
b1101110 "
#5647
b1111110110010011 C
b110010011 S
#5667
b1111111000110101 C
b100110101 S
#5687
b1111111011010111 C
b111010111 S
#5707
b1111111101111001 C
b101111001 S
#5727
b110110 C
b110110 S
#5747
b11011000 C
b11011000 S
#5767
b101111010 C
b1111010 S
#5787
b1000011100 C
b11100 S
#5807
b1010111110 C
b10111110 S
#5827
b1101100000 C
b1100000 S
#5828
b1101101 "
#5847
b10000000010 C
b10 S
#5867
b10010100100 C
b10100100 S
#5887
b10101000110 C
b1000110 S
#5907
b11000011110 C
b11110 S
#5927
b11010100101 C
b10100101 S
#5928
b1101100 "
#5947
b11101000111 C
b1000111 S
#5967
b11111001110 C
b11001110 S
#5987
b100001010101 C
b1010101 S
#6007
b100011000001 C
b11000001 S
#6027
b100101001000 C
b1001000 S
#6028
b1101011 "
#6047
b100110110100 C
b10110100 S
#6067
b101000100000 C
b100000 S
#6087
b101010001100 C
b10001100 S
#6107
b101011111000 C
b11111000 S
#6127
b101101001001 C
b1001001 S
#6128
b1101010 "
#6147
b101110011010 C
b10011010 S
#6167
b101111101011 C
b11101011 S
#6187
b110000111100 C
b111100 S
#6207
b110001110010 C
b1110010 S
#6227
b110010101000 C
b10101000 S
#6228
b1101001 "
#6247
b110011111001 C
b11111001 S
#6267
b110100010100 C
b10100 S
#6287
b110100101111 C
b101111 S
#6307
b110101001010 C
b1001010 S
#6328
b1101000 "
#6387
b110100101111 C
b101111 S
#6407
b110100010100 C
b10100 S
#6427
b110011111001 C
b11111001 S
#6428
b1101001 "
#6447
b110011011110 C
b11011110 S
#6467
b110010101000 C
b10101000 S
#6487
b110001110010 C
b1110010 S
#6507
b110000111100 C
b111100 S
#6527
b101111101011 C
b11101011 S
#6528
b1101010 "
#6547
b101110011010 C
b10011010 S
#6567
b101101001001 C
b1001001 S
#6587
b101011000010 C
b11000010 S
#6607
b101001010110 C
b1010110 S
#6627
b100111101010 C
b11101010 S
#6628
b1101101 "
#6647
b100101111110 C
b1111110 S
#6667
b100100010010 C
b10010 S
#6687
b100010001011 C
b10001011 S
#6707
b100000000100 C
b100 S
#6727
b11101111101 C
b1111101 S
#6728
b1110000 "
#6747
b11011110110 C
b11110110 S
#6767
b11001101111 C
b1101111 S
#6787
b10111001101 C
b11001101 S
#6807
b10101000110 C
b1000110 S
#6827
b10010100100 C
b10100100 S
#6828
b1110011 "
#6847
b10000000010 C
b10 S
#6867
b1101100000 C
b1100000 S
#6887
b1010111110 C
b10111110 S
#6907
b1000011100 C
b11100 S
#6927
b100101001 C
b101001 S
#6928
b1110111 "
#6947
b10000111 C
b10000111 S
#6967
b1111111111001010 C
b111001010 S
#6987
b1111111100101000 C
b100101000 S
#7007
b1111111010000110 C
b110000110 S
#7027
b1111110111100100 C
b111100100 S
#7028
b1111100 "
#7047
b1111110101000010 C
b101000010 S
#7067
b1111110010100000 C
b110100000 S
#7087
b1111101111111110 C
b111111110 S
#7107
b1111101101011100 C
b101011100 S
#7127
b1111101010111010 C
b110111010 S
#7128
b10000010 "
#7147
b1111101000110011 C
b100110011 S
#7167
b1111100110010001 C
b110010001 S
#7187
b1111100100001010 C
b100001010 S
#7207
b1111100010000011 C
b110000011 S
#7227
b1111011111111100 C
b111111100 S
#7228
b10001001 "
#7247
b1111011101110101 C
b101110101 S
#7267
b1111011010111000 C
b110111000 S
#7287
b1111011001001100 C
b101001100 S
#7307
b1111010111100000 C
b111100000 S
#7327
b1111010101110100 C
b101110100 S
#7328
b10001111 "
#7347
b1111010100001000 C
b100001000 S
#7367
b1111010010110111 C
b110110111 S
#7387
b1111010001100110 C
b101100110 S
#7407
b1111010000010101 C
b100010101 S
#7427
b1111001111000100 C
b111000100 S
#7428
b10010100 "
#7447
b1111001110001110 C
b110001110 S
#7467
b1111001101011000 C
b101011000 S
#7487
b1111001100100010 C
b100100010 S
#7507
b1111001100000111 C
b100000111 S
#7527
b1111001011101100 C
b111101100 S
#7528
b10011000 "
#7547
b1111001011010001 C
b111010001 S
#7567
b1111001010110110 C
b110110110 S
#7627
b1111001011010001 C
b111010001 S
#7628
b10011100 "
#7647
b1111001011101100 C
b111101100 S
#7667
b1111001100000111 C
b100000111 S
#7687
b1111001100100010 C
b100100010 S
#7707
b1111001101011000 C
b101011000 S
#7727
b1111001110001110 C
b110001110 S
#7728
b10100001 "
#7747
b1111001111000100 C
b111000100 S
#7767
b1111010000010101 C
b100010101 S
#7787
b1111010001100110 C
b101100110 S
#7807
b1111010010110111 C
b110110111 S
#7827
b1111010100001000 C
b100001000 S
#7828
b10100100 "
#7847
b1111010101110100 C
b101110100 S
#7867
b1111010111100000 C
b111100000 S
#7887
b1111011001001100 C
b101001100 S
#7907
b1111011010111000 C
b110111000 S
#7927
b1111011100111111 C
b100111111 S
#7928
b10100101 "
#7947
b1111011111111100 C
b111111100 S
#7967
b1111100010000011 C
b110000011 S
#7987
b1111100100001010 C
b100001010 S
#8007
b1111100110010001 C
b110010001 S
#8027
b1111101000110011 C
b100110011 S
#8028
b10100100 "
#8047
b1111101010111010 C
b110111010 S
#8067
b1111101101011100 C
b101011100 S
#8087
b1111101111111110 C
b111111110 S
#8107
b1111110010100000 C
b110100000 S
#8127
b1111110101000010 C
b101000010 S
#8128
b10100011 "
#8147
b1111110111100100 C
b111100100 S
#8167
b1111111010000110 C
b110000110 S
#8187
b1111111100101000 C
b100101000 S
