.Xil/Vivado-17588-scer/hw_ila_data_1/zip_work/waveform.vcd
$date
        2025-Jul-25 21:46:53
$end
$version
        Vivado v2020.2 (64-bit)
$end
$timescale
        1ps
$end
$scope module dut $end
$var reg 8 " D_IBUF [7:0] $end
$var reg 8 * A_OBUF [7:0] $end
$var reg 1 2 event_data_in_channel_halt $end
$var reg 1 3 m_axis_status_tvalid $end
$var reg 1 4 event_tlast_missing $end
$var reg 1 5 m_axis_status_tready $end
$var reg 1 6 event_frame_started $end
$var reg 1 7 event_tlast_unexpected $end
$var reg 1 8 event_status_channel_halt $end
$var reg 1 9 event_data_out_channel_halt $end
$var reg 32 : fw [31:0] $end
$var reg 1 Z _TRIGGER $end
$var reg 1 [ _WINDOW $end
$var reg 1 \ _GAP $end
$upscope $end
$enddefinitions $end
#0
$dumpvars
b1010101 "
b10011001 *
02
03
04
05
06
07
08
09
b111001010110000000000000000 :
0Z
1[
0\
$end
#11
b10010100 *
#31
b10001110 *
#32
b1001100 "
#51
b10000111 *
#71
b10000000 *
#91
b1111001 *
#111
b1110011 *
#131
b1101100 *
#132
b1100101 "
#151
b1100111 *
#171
b1100010 *
#191
b1011101 *
#211
b1011011 *
#231
b1011001 *
#232
b10001111 "
#251
b1011000 *
#271
b1011001 *
#291
b1011011 *
#311
b1011101 *
#331
b1100010 *
#332
b10101011 "
#351
b1100110 *
#371
b1101100 *
#391
b1110011 *
#411
b1111001 *
#431
b10000000 *
#432
b10100101 "
#451
b10000111 *
#471
b10001101 *
#491
b10010011 *
#511
b10011001 *
#531
b10011110 *
#532
b10000001 "
#551
b10100010 *
#571
b10100101 *
#591
b10100110 *
#611
b10100111 *
#631
b10100110 *
#632
b1011001 "
#651
b10100100 *
#671
b10100001 *
#691
b10011101 *
#711
b10011000 *
#731
b10010011 *
#732
b1001011 "
#751
b10001011 *
#771
b10000101 *
#791
b1111110 *
#811
b1110111 *
#831
b1110001 *
#832
b1100000 "
#851
b1101011 *
#871
b1100101 *
#891
b1100000 *
#911
b1011101 *
#931
b1011010 *
#932
b10001001 "
#951
b1011000 *
#991
b1011001 *
#1000
1Z
#1011
b1011011 *
#1031
b1011110 *
#1032
b10101001 "
#1051
b1100011 *
#1071
b1101000 *
#1091
b1101101 *
#1111
b1110101 *
#1131
b1111011 *
#1132
b10101000 "
#1151
b10000010 *
#1171
b10001001 *
#1191
b10001111 *
#1211
b10010101 *
#1231
b10011011 *
#1232
b10000111 "
#1251
b10011111 *
#1271
b10100011 *
#1291
b10100101 *
#1311
b10100111 *
#1332
b1011110 "
#1351
b10100110 *
#1371
b10100011 *
#1391
b10100000 *
#1411
b10011100 *
#1431
b10010111 *
#1432
b1001011 "
#1451
b10010001 *
#1471
b10001010 *
#1491
b10000011 *
#1511
b1111100 *
#1531
b1110110 *
#1532
b1011011 "
#1551
b1101111 *
#1571
b1101001 *
#1591
b1100011 *
#1611
b1011111 *
#1631
b1011100 *
#1632
b10000011 "
#1651
b1011001 *
#1671
b1011000 *
#1711
b1011010 *
#1731
b1011100 *
#1732
b10100110 "
#1751
b1100000 *
#1771
b1100100 *
#1791
b1101001 *
#1811
b1101111 *
#1831
b1110110 *
#1832
b10101010 "
#1851
b1111101 *
#1871
b10000100 *
#1891
b10001010 *
#1911
b10010001 *
#1931
b10010111 *
#1932
b10001101 "
#1951
b10011100 *
#1971
b10100001 *
#1991
b10100100 *
#2011
b10100110 *
#2031
b10100111 *
#2032
b1100011 "
#2071
b10100101 *
#2091
b10100011 *
#2111
b10011111 *
#2131
b10011010 *
#2132
b1001011 "
#2151
b10010101 *
#2171
b10001111 *
#2191
b10001000 *
#2211
b10000001 *
#2231
b1111010 *
#2232
b1010110 "
#2251
b1110100 *
#2271
b1101101 *
#2291
b1101000 *
#2311
b1100010 *
#2331
b1011110 *
#2332
b1111101 "
#2351
b1011011 *
#2371
b1011001 *
#2391
b1011000 *
#2431
b1011010 *
#2432
b10100010 "
#2451
b1011101 *
#2471
b1100001 *
#2491
b1100110 *
#2511
b1101011 *
#2531
b1110001 *
#2532
b10101100 "
#2551
b1111000 *
#2571
b1111111 *
#2591
b10000110 *
#2611
b10001100 *
#2631
b10010011 *
#2632
b10010011 "
#2651
b10011000 *
#2671
b10011110 *
#2691
b10100010 *
#2711
b10100100 *
#2731
b10100110 *
#2732
b1101001 "
#2751
b10100111 *
#2771
b10100110 *
#2791
b10100100 *
#2811
b10100010 *
#2831
b10011110 *
#2832
b1001101 "
#2851
b10011001 *
#2871
b10010011 *
#2891
b10001100 *
#2911
b10000110 *
#2931
b1111111 *
#2932
b1010010 "
#2951
b1111000 *
#2971
b1110010 *
#2991
b1101100 *
#3011
b1100110 *
#3031
b1100001 *
#3032
b1110110 "
#3051
b1011101 *
#3071
b1011010 *
#3091
b1011001 *
#3111
b1011000 *
#3131
b1011001 *
#3132
b10011110 "
#3151
b1011011 *
#3171
b1011110 *
#3191
b1100010 *
#3211
b1100111 *
#3231
b1101100 *
#3232
b10101101 "
#3251
b1110100 *
#3271
b1111010 *
#3291
b10000001 *
#3311
b10001000 *
#3331
b10001110 *
#3332
b10011000 "
#3351
b10010100 *
#3371
b10011010 *
#3391
b10011111 *
#3411
b10100011 *
#3431
b10100101 *
#3432
b1101111 "
#3451
b10100111 *
#3491
b10100110 *
#3511
b10100100 *
#3531
b10100001 *
#3532
b1001111 "
#3551
b10011100 *
#3571
b10010111 *
#3591
b10010010 *
#3611
b10001010 *
#3631
b10000100 *
#3632
b1010000 "
#3651
b1111101 *
#3671
b1110110 *
#3691
b1110000 *
#3711
b1101010 *
#3731
b1100100 *
#3732
b1110000 "
#3751
b1100000 *
#3771
b1011100 *
#3791
b1011010 *
#3811
b1011000 *
#3832
b10011001 "
#3851
b1011001 *
#3871
b1011100 *
#3891
b1011111 *
#3911
b1100011 *
#3931
b1101000 *
#3932
b10101101 "
#3951
b1101110 *
#3971
b1110110 *
#3991
b1111100 *
#4011
b10000011 *
#4031
b10001010 *
#4032
b10011101 "
#4051
b10010000 *
#4071
b10010110 *
#4091
b10011100 *
