.Xil/Vivado-15920-scer/hw_ila_data_1/zip_work/waveform.vcd
$date
        2025-Jul-27 11:39:40
$end
$version
        Vivado v2020.2 (64-bit)
$end
$timescale
        1ps
$end
$scope module dut $end
$var reg 8 " D_IBUF [7:0] $end
$var reg 8 * A_OBUF_1 [7:0] $end
$var reg 9 2 amp_d [8:0] $end
$var reg 8 ; amp_d_signed [7:0] $end
$var reg 7 C mult_full__0_1 [6:0] $end
$var reg 7 J A_OBUF [6:0] $end
$var reg 2 Q mult_full__0 [15:14] $end
$var reg 9 S user_probe_0 [8:0] $end
$var reg 8 \ amp_d_signed_avg [7:0] $end
$var reg 1 d _TRIGGER $end
$var reg 1 e _WINDOW $end
$var reg 1 f _GAP $end
$upscope $end
$enddefinitions $end
#0
$dumpvars
b1110001 "
b10000010 *
b11010 2
b11010 ;
b11110 C
b10 J
b0 Q
b11110 S
b11010 \
0d
1e
0f
$end
#9
b10000011 *
b111010 C
b11 J
b10111010 S
#29
b10000100 *
b1010110 C
b100 J
b1010110 S
#49
b10000101 *
b1110010 C
b101 J
b11110010 S
#69
b10000111 *
b1110 C
b111 J
b10001110 S
#89
b10001000 *
b101010 C
b1000 J
b101010 S
#90
b10000010 "
#109
b10001001 *
b1000110 C
b1001 J
b11000110 S
#129
b10001011 *
b10110 C
b1011 J
b10010110 S
#149
b10001100 *
b110010 C
b1100 J
b110010 S
#169
b10001101 *
b110100 C
b1101 J
b10110100 S
#189
b10001110 *
b110110 C
b1110 J
b110110 S
#190
b10001010 "
#209
b10001111 *
b111000 C
b1111 J
b10111000 S
#229
b10010000 *
b111010 C
b10000 J
b111010 S
#249
b10010001 *
b111100 C
b10001 J
b10111100 S
#269
b10010010 *
b100100 C
b10010 J
b100100 S
#289
b10010011 *
b1100 C
b10011 J
b10001100 S
#290
b10000100 "
#309
b1110100 C
b11110100 S
#329
b10010100 *
b1011100 C
b10100 J
b1011100 S
#349
b10010101 *
b1000100 C
b10101 J
b11000100 S
#369
b10010110 *
b10010 C
b10110 J
b10010 S
#389
b1100000 C
b1100000 S
#390
b1110011 "
#409
b10010111 *
b101110 C
b10111 J
b10101110 S
#429
b1100010 C
b11100010 S
#449
b10011000 *
b10110 C
b11000 J
b10110 S
#469
b1100100 C
b1100100 S
#489
b1111110 C
b1111110 S
#490
b1100001 "
#509
b10011001 *
b11000 C
b11001 J
b10011000 S
#529
b110010 C
b10110010 S
#549
b1001100 C
b11001100 S
#590
b1011001 "
#629
b110010 C
b10110010 S
#649
b11000 C
b10011000 S
#669
b10011000 *
b1111110 C
b11000 J
b1111110 S
#689
b1001010 C
b1001010 S
#690
b1100000 "
#709
b10110 C
b10110 S
#729
b10010111 *
b1100010 C
b10111 J
b11100010 S
#749
b101110 C
b10101110 S
#769
b10010110 *
b1100000 C
b10110 J
b1100000 S
#789
b10010 C
b10010 S
#790
b1110100 "
#809
b10010101 *
b10000 C
b10101 J
b10010000 S
#829
b10010100 *
b101000 C
b10100 J
b101000 S
#849
b10010011 *
b1000000 C
b10011 J
b11000000 S
#869
b10010010 *
b1011000 C
b10010 J
b1011000 S
#889
b10010001 *
b1110000 C
b10001 J
b11110000 S
#890
b10001011 "
#909
b10010000 *
b1101110 C
b10000 J
b1101110 S
#929
b110 C
b110 S
#949
b10001111 *
b100 C
b1111 J
b10000100 S
#969
b10001110 *
b10 C
b1110 J
b10 S
#989
b10001100 *
b1100110 C
b1100 J
b1100110 S
#990
b10011011 "
#1009
b10001011 *
b1100100 C
b1011 J
b11100100 S
#1029
b10001010 *
b1001000 C
b1010 J
b1001000 S
#1049
b10001001 *
b1000110 C
b1001 J
b11000110 S
#1069
b10001000 *
b101010 C
b1000 J
b101010 S
#1089
b10000111 *
b1110 C
b111 J
b10001110 S
#1090
b10011100 "
#1109
b10000101 *
b1110010 C
b101 J
b11110010 S
#1129
b10000100 *
b1010110 C
b100 J
b1010110 S
#1149
b10000010 *
b1101100 C
b10 J
b1101100 S
#1169
b10000001 *
b1010000 C
b1 J
b11010000 S
#1189
b10000000 *
b110100 C
b0 J
b110100 S
#1190
b10010000 "
#1209
b1111110 *
b1111110 C
b1111110 J
b11 Q
b101111110 S
#1229
b1111101 *
b1100010 C
b1111101 J
b111100010 S
#1249
b1111100 *
b1000110 C
b1111100 J
b101000110 S
#1269
b1111011 *
b101010 C
b1111011 J
b110101010 S
#1289
b1111010 *
b1110 C
b1111010 J
b100001110 S
#1290
b1111110 "
#1309
b1111000 *
b1110010 C
b1111000 J
b101110010 S
#1329
b1110111 *
b1010110 C
b1110111 J
b111010110 S
#1349
b1110110 *
b111010 C
b1110110 J
b100111010 S
#1369
b1110101 *
b111000 C
b1110101 J
b110111000 S
#1389
b1110100 *
b11100 C
b1110100 J
b100011100 S
#1390
b1110001 "
#1409
b1110011 *
b11010 C
b1110011 J
b110011010 S
#1429
b1110001 *
b1111110 C
b1110001 J
b111111110 S
#1449
b1110000 *
b1111100 C
b1110000 J
b101111100 S
#1469
b1101111 *
b1111010 C
b1101111 J
b111111010 S
#1489
b1101110 *
b1000100 C
b1101110 J
b101000100 S
#1490
b1110000 "
#1509
b1101101 *
b1011100 C
b1101101 J
b111011100 S
#1529
b1101100 *
b1110100 C
b1101100 J
b101110100 S
#1549
b1100 C
b100001100 S
#1569
b1101011 *
b100100 C
b1101011 J
b110100100 S
#1589
b1101010 *
b111100 C
b1101010 J
b100111100 S
#1590
b1111100 "
#1609
b1101001 *
b1101110 C
b1101001 J
b111101110 S
#1629
b100000 C
b110100000 S
#1649
b1101000 *
b1010010 C
b1101000 J
b101010010 S
#1669
b11110 C
b100011110 S
#1689
b1100111 *
b1101010 C
b1100111 J
b111101010 S
#1690
b10001111 "
#1709
b110110 C
b110110110 S
#1729
b10 C
b110000010 S
#1749
b1100110 *
b1101000 C
b1100110 J
b101101000 S
#1769
b1001110 C
b101001110 S
#1789
b110100 C
b100110100 S
#1790
b10011100 "
#1869
b1001110 C
b101001110 S
#1889
b1101000 C
b101101000 S
#1890
b10011101 "
#1909
b1100111 *
b10 C
b1100111 J
b110000010 S
#1929
b110110 C
b110110110 S
#1949
b1101010 C
b111101010 S
#1969
b1101000 *
b11110 C
b1101000 J
b100011110 S
#1989
b1010010 C
b101010010 S
#1990
b10001111 "
#2009
b1101001 *
b100000 C
b1101001 J
b110100000 S
#2029
b1101110 C
b111101110 S
#2049
b1101010 *
b111100 C
b1101010 J
b100111100 S
#2069
b1101011 *
b100100 C
b1101011 J
b110100100 S
#2089
b1101100 *
b1100 C
b1101100 J
b100001100 S
#2090
b1111000 "
#2109
b1110100 C
b101110100 S
#2129
b1101101 *
b1011100 C
b1101101 J
b111011100 S
#2149
b1101110 *
b1000100 C
b1101110 J
b101000100 S
#2169
b1101111 *
b1111010 C
b1101111 J
b111111010 S
#2189
b1110000 *
b1111100 C
b1110000 J
b101111100 S
#2190
b1100011 "
#2209
b1110001 *
b1111110 C
b1110001 J
b111111110 S
#2229
b1110011 *
b11010 C
b1110011 J
b110011010 S
#2249
b1110100 *
b11100 C
b1110100 J
b100011100 S
#2269
b1110101 *
b111000 C
b1110101 J
b110111000 S
#2289
b1110110 *
b111010 C
b1110110 J
b100111010 S
#2290
b1011010 "
#2309
b1110111 *
b1010110 C
b1110111 J
b111010110 S
#2329
b1111000 *
b1110010 C
b1111000 J
b101110010 S
#2349
b1111010 *
b1110 C
b1111010 J
b100001110 S
#2369
b1111011 *
b101010 C
b1111011 J
b110101010 S
#2389
b1111100 *
b1000110 C
b1111100 J
b101000110 S
#2390
b1100001 "
#2409
b1111101 *
b1100010 C
b1111101 J
b111100010 S
#2429
b1111110 *
b1111110 C
b1111110 J
b101111110 S
#2449
b10000000 *
b110100 C
b0 J
b0 Q
b110100 S
#2469
b10000001 *
b1010000 C
b1 J
b11010000 S
#2489
b10000010 *
b1101100 C
b10 J
b1101100 S
#2490
b1110001 "
#2509
b10000100 *
b1010110 C
b100 J
b1010110 S
#2529
b10000101 *
b1110010 C
b101 J
b11110010 S
#2549
b10000111 *
b1110 C
b111 J
b10001110 S
#2569
b10001000 *
b101010 C
b1000 J
b101010 S
#2589
b10001001 *
b1000110 C
b1001 J
b11000110 S
#2590
b10000011 "
#2609
b10001010 *
b1001000 C
b1010 J
b1001000 S
#2629
b10001011 *
b1100100 C
b1011 J
b11100100 S
#2649
b10001100 *
b1100110 C
b1100 J
b1100110 S
#2669
b10001110 *
b10 C
b1110 J
b10 S
#2689
b10001111 *
b100 C
b1111 J
b10000100 S
#2690
b10001010 "
#2709
b10010000 *
b110 C
b10000 J
b110 S
#2729
b1101110 C
b1101110 S
#2749
b10010001 *
b1110000 C
b10001 J
b11110000 S
#2769
b10010010 *
b1011000 C
b10010 J
b1011000 S
#2789
b10010011 *
b1000000 C
b10011 J
b11000000 S
#2790
b10000011 "
#2809
b10010100 *
b101000 C
b10100 J
b101000 S
#2829
b10010101 *
b10000 C
b10101 J
b10010000 S
#2849
b10010110 *
b10010 C
b10110 J
b10010 S
#2869
b1100000 C
b1100000 S
#2889
b10010111 *
b101110 C
b10111 J
b10101110 S
#2890
b1110010 "
#2909
b1100010 C
b11100010 S
#2929
b10011000 *
b10110 C
b11000 J
b10110 S
#2949
b1001010 C
b1001010 S
#2969
b1111110 C
b1111110 S
#2989
b10011001 *
b11000 C
b11001 J
b10011000 S
#2990
b1100010 "
#3009
b110010 C
b10110010 S
#3029
b1001100 C
b11001100 S
#3090
b1011010 "
#3109
b110010 C
b10110010 S
#3129
b11000 C
b10011000 S
#3149
b10011000 *
b1111110 C
b11000 J
b1111110 S
#3169
b1100100 C
b1100100 S
#3189
b10110 C
b10110 S
#3190
b1100001 "
#3209
b10010111 *
b1100010 C
b10111 J
b11100010 S
#3229
b101110 C
b10101110 S
#3249
b10010110 *
b1100000 C
b10110 J
b1100000 S
#3269
b10010 C
b10010 S
#3289
b10010101 *
b1000100 C
b10101 J
b11000100 S
#3290
b1110101 "
#3309
b10010100 *
b1011100 C
b10100 J
b1011100 S
#3329
b10010011 *
b1110100 C
b10011 J
b11110100 S
#3349
b1100 C
b10001100 S
#3369
b10010010 *
b100100 C
b10010 J
b100100 S
#3389
b10010001 *
b111100 C
b10001 J
b10111100 S
#3390
b10001100 "
#3409
b10010000 *
b111010 C
b10000 J
b111010 S
#3429
b10001111 *
b111000 C
b1111 J
b10111000 S
#3449
b10001110 *
b110110 C
b1110 J
b110110 S
#3469
b10001101 *
b110100 C
b1101 J
b10110100 S
#3489
b10001100 *
b110010 C
b1100 J
b110010 S
#3490
b10011011 "
#3509
b10001011 *
b10110 C
b1011 J
b10010110 S
#3529
b10001001 *
b1000110 C
b1001 J
b11000110 S
#3549
b10001000 *
b101010 C
b1000 J
b101010 S
#3569
b10000111 *
b1110 C
b111 J
b10001110 S
#3589
b10000101 *
b1110010 C
b101 J
b11110010 S
#3590
b10011101 "
#3609
b10000100 *
b1010110 C
b100 J
b1010110 S
#3629
b10000011 *
b111010 C
b11 J
b10111010 S
#3649
b10000010 *
b11110 C
b10 J
b11110 S
#3669
b10000001 *
b10 C
b1 J
b10000010 S
#3689
b1111111 *
b1001100 C
b1111111 J
b11 Q
b111001100 S
#3690
b10010001 "
#3709
b1111110 *
b110000 C
b1111110 J
b100110000 S
#3729
b1111101 *
b10100 C
b1111101 J
b110010100 S
#3749
b1111011 *
b1111000 C
b1111011 J
b111111000 S
#3769
b1111010 *
b1011100 C
b1111010 J
b101011100 S
#3789
b1111001 *
b1000000 C
b1111001 J
b111000000 S
#3790
b1111111 "
#3809
b1111000 *
b100100 C
b1111000 J
b100100100 S
#3829
b1110111 *
b1000 C
b1110111 J
b110001000 S
#3849
b1110101 *
b1101100 C
b1110101 J
b111101100 S
#3869
b1110100 *
b11100 C
b1110100 J
b100011100 S
#3889
b1110011 *
b11010 C
b1110011 J
b110011010 S
#3890
b1110001 "
#3909
b1110001 *
b1111110 C
b1110001 J
b111111110 S
#3929
b1110000 *
b1111100 C
b1110000 J
b101111100 S
#3949
b1101111 *
b1111010 C
b1101111 J
b111111010 S
#3969
b10010 C
b110010010 S
#3989
b1101110 *
b10000 C
b1101110 J
b100010000 S
#3990
b1110000 "
#4000
b110011 2
1d
#4009
b1101101 *
b101000 C
b1101101 J
b110101000 S
#4029
b1101100 *
b1000000 C
b1101100 J
b101000000 S
#4049
b1101011 *
b1011000 C
b1101011 J
b111011000 S
#4069
b1101010 *
b1110000 C
b1101010 J
b101110000 S
#4089
b100010 C
b100100010 S
#4090
b1111100 "
#4109
b1101001 *
b1010100 C
b1101001 J
b111010100 S
#4129
b110 C
b110000110 S
#4149
b1101000 *
b111000 C
b1101000 J
b100111000 S
#4169
b100 C
b100000100 S
#4189
b1100111 *
b1010000 C
b1100111 J
b111010000 S
#4190
b10001110 "
#4209
b10 C
b110000010 S
#4229
b1100110 *
b1101000 C
b1100110 J
b101101000 S
#4249
b1001110 C
b101001110 S
#4269
b110100 C
b100110100 S
#4290
b10011100 "
#4349
b1001110 C
b101001110 S
#4369
b1101000 C
b101101000 S
#4389
b1100111 *
b10 C
b1100111 J
b110000010 S
#4390
b10011101 "
#4409
b11100 C
b110011100 S
#4429
b1010000 C
b111010000 S
#4449
b1101000 *
b100 C
b1101000 J
b100000100 S
#4469
b111000 C
b100111000 S
#4489
b1101001 *
b110 C
b1101001 J
b110000110 S
#4490
b10001111 "
#4509
b1010100 C
b111010100 S
#4529
b1101010 *
b100010 C
b1101010 J
b100100010 S
#4549
b1101011 *
b100100 C
b1101011 J
b110100100 S
#4569
b1101100 *
b1100 C
b1101100 J
b100001100 S
#4589
b1110100 C
b101110100 S
#4590
b1111000 "
#4609
b1101101 *
b1011100 C
b1101101 J
b111011100 S
#4629
b1101110 *
b1000100 C
b1101110 J
b101000100 S
#4649
b1101111 *
b1000110 C
b1101111 J
b111000110 S
#4669
b1110000 *
b1001000 C
b1110000 J
b101001000 S
#4689
b1110001 *
b1001010 C
b1110001 J
b111001010 S
#4690
b1100011 "
#4709
b1110010 *
b1001100 C
b1110010 J
b101001100 S
#4729
b1110011 *
b1001110 C
b1110011 J
b111001110 S
#4749
b1110100 *
b1101010 C
b1110100 J
b101101010 S
#4769
b1110101 *
b1101100 C
b1110101 J
b111101100 S
#4789
b1110111 *
b1000 C
b1110111 J
b110001000 S
#4790
b1011010 "
#4809
b1111000 *
b100100 C
b1111000 J
b100100100 S
#4829
b1111001 *
b1000000 C
b1111001 J
b111000000 S
#4849
b1111010 *
b1011100 C
b1111010 J
b101011100 S
#4869
b1111011 *
b1111000 C
b1111011 J
b111111000 S
#4889
b1111101 *
b10100 C
b1111101 J
b110010100 S
#4890
b1100000 "
#4909
b1111110 *
b1111110 C
b1111110 J
b101111110 S
#4929
b10000000 *
b110100 C
b0 J
b0 Q
b110100 S
#4949
b10000001 *
b1010000 C
b1 J
b11010000 S
#4969
b10000010 *
b1101100 C
b10 J
b1101100 S
#4989
b10000100 *
b1000 C
b100 J
b1000 S
#4990
b1110001 "
#5009
b10000101 *
b100100 C
b101 J
b10100100 S
#5029
b10000110 *
b1000000 C
b110 J
b1000000 S
#5049
b10000111 *
b1011100 C
b111 J
b11011100 S
#5069
b10001000 *
b1111000 C
b1000 J
b1111000 S
#5089
b10001010 *
b10100 C
b1010 J
b10100 S
#5090
b10000010 "
#5109
b10001011 *
b10110 C
b1011 J
b10010110 S
#5129
b10001100 *
b110010 C
b1100 J
b110010 S
#5149
b10001101 *
b110100 C
b1101 J
b10110100 S
#5169
b10001110 *
b110110 C
b1110 J
b110110 S
#5189
b10001111 *
b111000 C
b1111 J
b10111000 S
#5190
b10001010 "
#5209
b10010000 *
b111010 C
b10000 J
b111010 S
#5229
b10010001 *
b111100 C
b10001 J
b10111100 S
#5249
b10010010 *
b1011000 C
b10010 J
b1011000 S
#5269
b10010011 *
b1000000 C
b10011 J
b11000000 S
#5289
b10010100 *
b101000 C
b10100 J
b101000 S
#5290
b10000100 "
#5309
b10010101 *
b10000 C
b10101 J
b10010000 S
#5329
b1011110 C
b11011110 S
#5349
b10010110 *
b101100 C
b10110 J
b101100 S
#5369
b1111010 C
b1111010 S
#5389
b10010111 *
b1001000 C
b10111 J
b11001000 S
#5390
b1110011 "
#5409
b1111100 C
b11111100 S
#5429
b10011000 *
b110000 C
b11000 J
b110000 S
#5449
b1100100 C
b1100100 S
#5469
b1111110 C
b1111110 S
#5489
b10011001 *
b11000 C
b11001 J
b10011000 S
#5490
b1100010 "
#5509
b110010 C
b10110010 S
#5529
b1001100 C
b11001100 S
#5589
b110010 C
b10110010 S
#5590
b1011010 "
#5609
b11000 C
b10011000 S
#5629
b10011000 *
b1111110 C
b11000 J
b1111110 S
#5649
b1100100 C
b1100100 S
#5669
b110000 C
b110000 S
#5689
b10010111 *
b1111100 C
b10111 J
b11111100 S
#5690
b1100001 "
#5709
b1001000 C
b11001000 S
#5729
b10010110 *
b1111010 C
b10110 J
b1111010 S
#5749
b101100 C
b101100 S
#5769
b10010101 *
b1011110 C
b10101 J
b11011110 S
#5789
b10000 C
b10010000 S
#5790
b1110101 "
#5809
b10010100 *
b101000 C
b10100 J
b101000 S
#5829
b10010011 *
b1000000 C
b10011 J
b11000000 S
#5849
b10010010 *
b1011000 C
b10010 J
b1011000 S
#5869
b10010001 *
b1110000 C
b10001 J
b11110000 S
#5889
b10010000 *
b1101110 C
b10000 J
b1101110 S
#5890
b10001100 "
#5909
b110 C
b110 S
#5929
b10001110 *
b110110 C
b1110 J
b110110 S
#5949
b10001101 *
b110100 C
b1101 J
b10110100 S
#5969
b10001100 *
b110010 C
b1100 J
b110010 S
#5989
b10001011 *
b10110 C
b1011 J
b10010110 S
#5990
b10011100 "
#6009
b10001010 *
b10100 C
b1010 J
b10100 S
#6029
b10001000 *
b1111000 C
b1000 J
b1111000 S
#6049
b10000111 *
b1011100 C
b111 J
b11011100 S
#6069
b10000110 *
b1000000 C
b110 J
b1000000 S
#6089
b10000101 *
b100100 C
b101 J
b10100100 S
#6090
b10011110 "
#6109
b10000100 *
b1000 C
b100 J
b1000 S
#6129
b10000010 *
b1101100 C
b10 J
b1101100 S
#6149
b10000001 *
b1010000 C
b1 J
b11010000 S
#6169
b10000000 *
b110100 C
b0 J
b110100 S
#6189
b1111110 *
b1111110 C
b1111110 J
b11 Q
b101111110 S
#6190
b10010000 "
#6209
b1111101 *
b1100010 C
b1111101 J
b111100010 S
#6229
b1111100 *
b1000110 C
b1111100 J
b101000110 S
#6249
b1111011 *
b101010 C
b1111011 J
b110101010 S
#6269
b1111001 *
b1000000 C
b1111001 J
b111000000 S
#6289
b1111000 *
b100100 C
b1111000 J
b100100100 S
#6290
b1111110 "
#6309
b1110111 *
b1000 C
b1110111 J
b110001000 S
#6329
b1110101 *
b1101100 C
b1110101 J
b111101100 S
#6349
b1110100 *
b1101010 C
b1110100 J
b101101010 S
#6369
b1110011 *
b1001110 C
b1110011 J
b111001110 S
#6389
b1110010 *
b1001100 C
b1110010 J
b101001100 S
#6390
b1110001 "
#6409
b1110001 *
b1001010 C
b1110001 J
b111001010 S
#6429
b1110000 *
b1001000 C
b1110000 J
b101001000 S
#6449
b1101111 *
b1000110 C
b1101111 J
b111000110 S
#6469
b1101110 *
b1000100 C
b1101110 J
b101000100 S
#6489
b1101101 *
b1011100 C
b1101101 J
b111011100 S
#6490
b1110000 "
#6509
b1101100 *
b1110100 C
b1101100 J
b101110100 S
#6529
b1100 C
b100001100 S
#6549
b1101011 *
b100100 C
b1101011 J
b110100100 S
#6569
b1101010 *
b111100 C
b1101010 J
b100111100 S
#6589
b1101001 *
b1101110 C
b1101001 J
b111101110 S
#6590
b1111101 "
#6609
b110 C
b110000110 S
#6629
b1101000 *
b111000 C
b1101000 J
b100111000 S
#6649
b100 C
b100000100 S
#6669
b1100111 *
b1010000 C
b1100111 J
b111010000 S
#6689
b11100 C
b110011100 S
#6690
b10001111 "
#6709
b10 C
b110000010 S
#6729
b1100110 *
b1101000 C
b1100110 J
b101101000 S
#6749
b1001110 C
b101001110 S
#6769
b110100 C
b100110100 S
#6790
b10011100 "
#6849
b1001110 C
b101001110 S
#6869
b1101000 C
b101101000 S
#6889
b1100111 *
b10 C
b1100111 J
b110000010 S
#6909
b110110 C
b110110110 S
#6929
b1101010 C
b111101010 S
#6949
b1101000 *
b111000 C
b1101000 J
b100111000 S
#6969
b1101001 *
b110 C
b1101001 J
b110000110 S
#6989
b1010100 C
b111010100 S
#6990
b10001110 "
#7009
b1101010 *
b100010 C
b1101010 J
b100100010 S
#7029
b1110000 C
b101110000 S
#7049
b1101011 *
b1011000 C
b1101011 J
b111011000 S
#7069
b1101100 *
b1000000 C
b1101100 J
b101000000 S
#7089
b1101101 *
b101000 C
b1101101 J
b110101000 S
#7090
b1110111 "
#7109
b1101110 *
b10000 C
b1101110 J
b100010000 S
#7129
b1101111 *
b10010 C
b1101111 J
b110010010 S
#7149
b1111010 C
b111111010 S
#7169
b1110000 *
b1111100 C
b1110000 J
b101111100 S
#7189
b1110001 *
b1111110 C
b1110001 J
b111111110 S
#7190
b1100011 "
#7209
b1110011 *
b11010 C
b1110011 J
b110011010 S
#7229
b1110100 *
b11100 C
b1110100 J
b100011100 S
#7249
b1110101 *
b111000 C
b1110101 J
b110111000 S
#7269
b1110110 *
b111010 C
b1110110 J
b100111010 S
#7289
b1111000 *
b100100 C
b1111000 J
b100100100 S
#7290
b1011010 "
#7309
b1111001 *
b1000000 C
b1111001 J
b111000000 S
#7329
b1111010 *
b1011100 C
b1111010 J
b101011100 S
#7349
b1111011 *
b1111000 C
b1111011 J
b111111000 S
#7369
b1111101 *
b10100 C
b1111101 J
b110010100 S
#7389
b1111110 *
b110000 C
b1111110 J
b100110000 S
#7390
b1100000 "
#7409
b1111111 *
b1001100 C
b1111111 J
b111001100 S
#7429
b10000001 *
b10 C
b1 J
b0 Q
b10000010 S
#7449
b10000010 *
b11110 C
b10 J
b11110 S
#7469
b10000011 *
b111010 C
b11 J
b10111010 S
#7489
b10000100 *
b1010110 C
b100 J
b1010110 S
#7490
b1110000 "
#7509
b10000101 *
b1110010 C
b101 J
b11110010 S
#7529
b10000111 *
b1110 C
b111 J
b10001110 S
#7549
b10001000 *
b101010 C
b1000 J
b101010 S
#7569
b10001001 *
b1000110 C
b1001 J
b11000110 S
#7589
b10001010 *
b1001000 C
b1010 J
b1001000 S
#7590
b10000010 "
#7609
b10001011 *
b1100100 C
b1011 J
b11100100 S
#7629
b10001101 *
b110100 C
b1101 J
b10110100 S
#7649
b10001110 *
b110110 C
b1110 J
b110110 S
#7669
b10001111 *
b111000 C
b1111 J
b10111000 S
#7689
b10010000 *
b111010 C
b10000 J
b111010 S
#7690
b10001010 "
#7709
b10010001 *
b111100 C
b10001 J
b10111100 S
#7729
b10010010 *
b100100 C
b10010 J
b100100 S
#7749
b10010011 *
b1100 C
b10011 J
b10001100 S
#7769
b1110100 C
b11110100 S
#7789
b10010100 *
b1011100 C
b10100 J
b1011100 S
#7790
b10000100 "
#7809
b10010101 *
b1000100 C
b10101 J
b11000100 S
#7829
b10010110 *
b10010 C
b10110 J
b10010 S
#7849
b1100000 C
b1100000 S
#7869
b10010111 *
b101110 C
b10111 J
b10101110 S
#7889
b1100010 C
b11100010 S
#7890
b1110011 "
#7909
b10011000 *
b10110 C
b11000 J
b10110 S
#7929
b1001010 C
b1001010 S
#7949
b1111110 C
b1111110 S
#7969
b10011001 *
b11000 C
b11001 J
b10011000 S
#7989
b110010 C
b10110010 S
#7990
b1100010 "
#8009
b1001100 C
b11001100 S
#8089
b110010 C
b10110010 S
#8090
b1011010 "
#8109
b11000 C
b10011000 S
#8129
b10011000 *
b1111110 C
b11000 J
b1111110 S
#8149
b1001010 C
b1001010 S
#8169
b10110 C
b10110 S
#8189
b10010111 *
b1100010 C
b10111 J
b11100010 S
#8190
b1100010 "
